; ModuleID = 'omp_workshare1.c'
source_filename = "omp_workshare1.c"
target datalayout = "e-m:e-i64:64-f80:128-n8:16:32:64-S128"
target triple = "x86_64-pc-linux-gnu"

@.str = private unnamed_addr constant [24 x i8] c"Number of threads = %d\0A\00", align 1
@.str.1 = private unnamed_addr constant [23 x i8] c"Thread %d starting...\0A\00", align 1
@.str.2 = private unnamed_addr constant [22 x i8] c"Thread %d: c[%d]= %f\0A\00", align 1

; Function Attrs: nounwind uwtable
define i32 @main(i32, i8**) #0 {
  %3 = alloca i32, align 4
  %4 = alloca i32, align 4
  %5 = alloca i8**, align 8
  %6 = alloca i32, align 4
  %7 = alloca i32, align 4
  %8 = alloca i32, align 4
  %9 = alloca i32, align 4
  %10 = alloca [100 x float], align 16
  %11 = alloca [100 x float], align 16
  %12 = alloca [100 x float], align 16
  store i32 0, i32* %3, align 4
  store i32 %0, i32* %4, align 4
  store i8** %1, i8*** %5, align 8
  store i32 0, i32* %8, align 4
  br label %13

; <label>:13:                                     ; preds = %27, %2
  %14 = load i32, i32* %8, align 4
  %15 = icmp slt i32 %14, 100
  br i1 %15, label %16, label %30

; <label>:16:                                     ; preds = %13
  %17 = load i32, i32* %8, align 4
  %18 = sitofp i32 %17 to double
  %19 = fmul double %18, 1.000000e+00
  %20 = fptrunc double %19 to float
  %21 = load i32, i32* %8, align 4
  %22 = sext i32 %21 to i64
  %23 = getelementptr inbounds [100 x float], [100 x float]* %11, i64 0, i64 %22
  store float %20, float* %23, align 4
  %24 = load i32, i32* %8, align 4
  %25 = sext i32 %24 to i64
  %26 = getelementptr inbounds [100 x float], [100 x float]* %10, i64 0, i64 %25
  store float %20, float* %26, align 4
  br label %27

; <label>:27:                                     ; preds = %16
  %28 = load i32, i32* %8, align 4
  %29 = add nsw i32 %28, 1
  store i32 %29, i32* %8, align 4
  br label %13

; <label>:30:                                     ; preds = %13
  store i32 10, i32* %9, align 4
  %31 = call i32 @omp_get_thread_num()
  store i32 %31, i32* %7, align 4
  %32 = load i32, i32* %7, align 4
  %33 = icmp eq i32 %32, 0
  br i1 %33, label %34, label %38

; <label>:34:                                     ; preds = %30
  %35 = call i32 @omp_get_num_threads()
  store i32 %35, i32* %6, align 4
  %36 = load i32, i32* %6, align 4
  %37 = call i32 (i8*, ...) @printf(i8* getelementptr inbounds ([24 x i8], [24 x i8]* @.str, i32 0, i32 0), i32 %36)
  br label %38

; <label>:38:                                     ; preds = %34, %30
  %39 = load i32, i32* %7, align 4
  %40 = call i32 (i8*, ...) @printf(i8* getelementptr inbounds ([23 x i8], [23 x i8]* @.str.1, i32 0, i32 0), i32 %39)
  store i32 0, i32* %8, align 4
  br label %41

; <label>:41:                                     ; preds = %65, %38
  %42 = load i32, i32* %8, align 4
  %43 = icmp slt i32 %42, 100
  br i1 %43, label %44, label %68

; <label>:44:                                     ; preds = %41
  %45 = load i32, i32* %8, align 4
  %46 = sext i32 %45 to i64
  %47 = getelementptr inbounds [100 x float], [100 x float]* %10, i64 0, i64 %46
  %48 = load float, float* %47, align 4
  %49 = load i32, i32* %8, align 4
  %50 = sext i32 %49 to i64
  %51 = getelementptr inbounds [100 x float], [100 x float]* %11, i64 0, i64 %50
  %52 = load float, float* %51, align 4
  %53 = fadd float %48, %52
  %54 = load i32, i32* %8, align 4
  %55 = sext i32 %54 to i64
  %56 = getelementptr inbounds [100 x float], [100 x float]* %12, i64 0, i64 %55
  store float %53, float* %56, align 4
  %57 = load i32, i32* %7, align 4
  %58 = load i32, i32* %8, align 4
  %59 = load i32, i32* %8, align 4
  %60 = sext i32 %59 to i64
  %61 = getelementptr inbounds [100 x float], [100 x float]* %12, i64 0, i64 %60
  %62 = load float, float* %61, align 4
  %63 = fpext float %62 to double
  %64 = call i32 (i8*, ...) @printf(i8* getelementptr inbounds ([22 x i8], [22 x i8]* @.str.2, i32 0, i32 0), i32 %57, i32 %58, double %63)
  br label %65

; <label>:65:                                     ; preds = %44
  %66 = load i32, i32* %8, align 4
  %67 = add nsw i32 %66, 1
  store i32 %67, i32* %8, align 4
  br label %41

; <label>:68:                                     ; preds = %41
  %69 = load i32, i32* %3, align 4
  ret i32 %69
}

declare i32 @omp_get_thread_num() #1

declare i32 @omp_get_num_threads() #1

declare i32 @printf(i8*, ...) #1

attributes #0 = { nounwind uwtable "disable-tail-calls"="false" "less-precise-fpmad"="false" "no-frame-pointer-elim"="true" "no-frame-pointer-elim-non-leaf" "no-infs-fp-math"="false" "no-jump-tables"="false" "no-nans-fp-math"="false" "no-signed-zeros-fp-math"="false" "stack-protector-buffer-size"="8" "target-cpu"="x86-64" "target-features"="+fxsr,+mmx,+sse,+sse2,+x87" "unsafe-fp-math"="false" "use-soft-float"="false" }
attributes #1 = { "disable-tail-calls"="false" "less-precise-fpmad"="false" "no-frame-pointer-elim"="true" "no-frame-pointer-elim-non-leaf" "no-infs-fp-math"="false" "no-nans-fp-math"="false" "no-signed-zeros-fp-math"="false" "stack-protector-buffer-size"="8" "target-cpu"="x86-64" "target-features"="+fxsr,+mmx,+sse,+sse2,+x87" "unsafe-fp-math"="false" "use-soft-float"="false" }

!llvm.ident = !{!0}

!0 = !{!"clang version 3.9.1-svn288847-1~exp1 (branches/release_39)"}
