; ModuleID = 'omp_hello.c'
source_filename = "omp_hello.c"
target datalayout = "e-m:e-i64:64-f80:128-n8:16:32:64-S128"
target triple = "x86_64-pc-linux-gnu"

@.str = private unnamed_addr constant [30 x i8] c"Hello World from thread = %d\0A\00", align 1
@.str.1 = private unnamed_addr constant [24 x i8] c"Number of threads = %d\0A\00", align 1

; Function Attrs: nounwind uwtable
define i32 @main(i32, i8**) #0 {
  %3 = alloca i32, align 4
  %4 = alloca i32, align 4
  %5 = alloca i8**, align 8
  %6 = alloca i32, align 4
  %7 = alloca i32, align 4
  store i32 0, i32* %3, align 4
  store i32 %0, i32* %4, align 4
  store i8** %1, i8*** %5, align 8
  %8 = call i32 @omp_get_thread_num()
  store i32 %8, i32* %7, align 4
  %9 = load i32, i32* %7, align 4
  %10 = call i32 (i8*, ...) @printf(i8* getelementptr inbounds ([30 x i8], [30 x i8]* @.str, i32 0, i32 0), i32 %9)
  %11 = load i32, i32* %7, align 4
  %12 = icmp eq i32 %11, 0
  br i1 %12, label %13, label %17

; <label>:13:                                     ; preds = %2
  %14 = call i32 @omp_get_num_threads()
  store i32 %14, i32* %6, align 4
  %15 = load i32, i32* %6, align 4
  %16 = call i32 (i8*, ...) @printf(i8* getelementptr inbounds ([24 x i8], [24 x i8]* @.str.1, i32 0, i32 0), i32 %15)
  br label %17

; <label>:17:                                     ; preds = %13, %2
  %18 = load i32, i32* %3, align 4
  ret i32 %18
}

declare i32 @omp_get_thread_num() #1

declare i32 @printf(i8*, ...) #1

declare i32 @omp_get_num_threads() #1

attributes #0 = { nounwind uwtable "disable-tail-calls"="false" "less-precise-fpmad"="false" "no-frame-pointer-elim"="true" "no-frame-pointer-elim-non-leaf" "no-infs-fp-math"="false" "no-jump-tables"="false" "no-nans-fp-math"="false" "no-signed-zeros-fp-math"="false" "stack-protector-buffer-size"="8" "target-cpu"="x86-64" "target-features"="+fxsr,+mmx,+sse,+sse2,+x87" "unsafe-fp-math"="false" "use-soft-float"="false" }
attributes #1 = { "disable-tail-calls"="false" "less-precise-fpmad"="false" "no-frame-pointer-elim"="true" "no-frame-pointer-elim-non-leaf" "no-infs-fp-math"="false" "no-nans-fp-math"="false" "no-signed-zeros-fp-math"="false" "stack-protector-buffer-size"="8" "target-cpu"="x86-64" "target-features"="+fxsr,+mmx,+sse,+sse2,+x87" "unsafe-fp-math"="false" "use-soft-float"="false" }

!llvm.ident = !{!0}

!0 = !{!"clang version 3.9.1-svn288847-1~exp1 (branches/release_39)"}
